#! /usr/bin/vvp
:ivl_version "10.1 (stable)";
:ivl_delay_selection "TYPICAL";
:vpi_time_precision + 0;
:vpi_module "system";
:vpi_module "vhdl_sys";
:vpi_module "v2005_math";
:vpi_module "va_math";
S_0x26f6108 .scope module, "BUF" "BUF" 2 1;
 .timescale 0 0;
    .port_info 0 /INPUT 1 "A"
    .port_info 1 /OUTPUT 1 "Y"
o0x26f88dc .functor BUFZ 1, C4<z>; HiZ drive
L_0x27233c0 .functor BUFZ 1, o0x26f88dc, C4<0>, C4<0>, C4<0>;
v0x26eaf38_0 .net "A", 0 0, o0x26f88dc;  0 drivers
v0x271a470_0 .net "Y", 0 0, L_0x27233c0;  1 drivers
S_0x26f5b20 .scope module, "DFF" "DFF" 2 25;
 .timescale 0 0;
    .port_info 0 /INPUT 1 "C"
    .port_info 1 /INPUT 1 "D"
    .port_info 2 /OUTPUT 1 "Q"
o0x26f893c .functor BUFZ 1, C4<z>; HiZ drive
v0x271a540_0 .net "C", 0 0, o0x26f893c;  0 drivers
o0x26f8954 .functor BUFZ 1, C4<z>; HiZ drive
v0x271a5b8_0 .net "D", 0 0, o0x26f8954;  0 drivers
v0x271a620_0 .var "Q", 0 0;
E_0x271a508 .event posedge, v0x271a540_0;
S_0x26f5538 .scope module, "DFFSR" "DFFSR" 2 34;
 .timescale 0 0;
    .port_info 0 /INPUT 1 "C"
    .port_info 1 /INPUT 1 "D"
    .port_info 2 /OUTPUT 1 "Q"
    .port_info 3 /INPUT 1 "S"
    .port_info 4 /INPUT 1 "R"
o0x26f89cc .functor BUFZ 1, C4<z>; HiZ drive
v0x271a708_0 .net "C", 0 0, o0x26f89cc;  0 drivers
o0x26f89e4 .functor BUFZ 1, C4<z>; HiZ drive
v0x271a780_0 .net "D", 0 0, o0x26f89e4;  0 drivers
v0x271a7e8_0 .var "Q", 0 0;
o0x26f8a14 .functor BUFZ 1, C4<z>; HiZ drive
v0x271a858_0 .net "R", 0 0, o0x26f8a14;  0 drivers
o0x26f8a2c .functor BUFZ 1, C4<z>; HiZ drive
v0x271a8c0_0 .net "S", 0 0, o0x26f8a2c;  0 drivers
E_0x271a6d0 .event posedge, v0x271a858_0, v0x271a8c0_0, v0x271a708_0;
S_0x26f4c60 .scope module, "greloj_tb" "greloj_tb" 3 7;
 .timescale 0 0;
v0x2722f90_0 .net "wclk_16", 0 0, v0x2722bf0_0;  1 drivers
v0x2722ff8_0 .net "wclk_1_cond", 0 0, v0x271ab28_0;  1 drivers
v0x2723098_0 .net "wclk_1_estr", 0 0, v0x2722778_0;  1 drivers
v0x2723128_0 .net "wclk_2_cond", 0 0, v0x271ac08_0;  1 drivers
v0x27231b8_0 .net "wclk_2_estr", 0 0, v0x2722828_0;  1 drivers
v0x2723248_0 .net "wclk_4_cond", 0 0, v0x271ac78_0;  1 drivers
v0x27232d8_0 .net "wclk_4_estr", 0 0, v0x2722880_0;  1 drivers
v0x2723368_0 .net "wreset_L", 0 0, v0x2722ec8_0;  1 drivers
S_0x271a9a0 .scope module, "gr_cond" "greloj_cond" 3 18, 4 6 0, S_0x26f4c60;
 .timescale 0 0;
    .port_info 0 /OUTPUT 1 "clk_4"
    .port_info 1 /OUTPUT 1 "clk_2"
    .port_info 2 /OUTPUT 1 "clk_1"
    .port_info 3 /INPUT 1 "reset_L"
    .port_info 4 /INPUT 1 "clk_16"
v0x271ab28_0 .var "clk_1", 0 0;
v0x271aba0_0 .net "clk_16", 0 0, v0x2722bf0_0;  alias, 1 drivers
v0x271ac08_0 .var "clk_2", 0 0;
v0x271ac78_0 .var "clk_4", 0 0;
v0x271ace0_0 .var "contador_1", 2 0;
v0x271ad80_0 .var "contador_2", 1 0;
v0x271adf8_0 .var "contador_4", 0 0;
v0x271ae60_0 .net "reset_L", 0 0, v0x2722ec8_0;  alias, 1 drivers
E_0x271aae0 .event posedge, v0x271aba0_0;
S_0x271af18 .scope module, "gr_estr" "greloj_estructural_mapped" 3 19, 5 3 0, S_0x26f4c60;
 .timescale 0 0;
    .port_info 0 /OUTPUT 1 "clk_4"
    .port_info 1 /OUTPUT 1 "clk_2"
    .port_info 2 /OUTPUT 1 "clk_1"
    .port_info 3 /INPUT 1 "reset_L"
    .port_info 4 /INPUT 1 "clk_16"
L_0x2725558 .functor BUFZ 1, v0x2722778_0, C4<0>, C4<0>, C4<0>;
L_0x27255a8 .functor BUFZ 1, v0x2722ec8_0, C4<0>, C4<0>, C4<0>;
L_0x2725660 .functor BUFZ 1, L_0x2723af8, C4<0>, C4<0>, C4<0>;
L_0x27256b0 .functor BUFZ 1, L_0x2723bf8, C4<0>, C4<0>, C4<0>;
L_0x27256f0 .functor BUFZ 1, L_0x2723fb8, C4<0>, C4<0>, C4<0>;
L_0x27257c0 .functor BUFZ 1, L_0x2721560, C4<0>, C4<0>, C4<0>;
L_0x2725838 .functor BUFZ 1, v0x2722828_0, C4<0>, C4<0>, C4<0>;
L_0x2725878 .functor BUFZ 1, L_0x2724a30, C4<0>, C4<0>, C4<0>;
L_0x27258e0 .functor BUFZ 1, L_0x2724b38, C4<0>, C4<0>, C4<0>;
L_0x27259b0 .functor BUFZ 1, L_0x2722028, C4<0>, C4<0>, C4<0>;
L_0x2725a58 .functor BUFZ 1, v0x2722880_0, C4<0>, C4<0>, C4<0>;
L_0x2725b20 .functor BUFZ 1, L_0x2725380, C4<0>, C4<0>, C4<0>;
L_0x2725b60 .functor BUFZ 1, L_0x2721928, C4<0>, C4<0>, C4<0>;
v0x2720de8_0 .net "_000_", 0 0, L_0x2725660;  1 drivers
v0x2720e50_0 .net "_001_", 0 0, L_0x2725878;  1 drivers
v0x2720eb8_0 .net "_002_", 0 0, L_0x2725b20;  1 drivers
v0x2720f28_0 .net "_003_", 2 0, L_0x2725730;  1 drivers
v0x2720fa0_0 .net "_004_", 1 0, L_0x2725920;  1 drivers
v0x2721040_0 .net "_005_", 0 0, L_0x2725b60;  1 drivers
v0x27210a8_0 .net "_006_", 0 0, L_0x27255a8;  1 drivers
v0x2721100_0 .net "_007_", 0 0, L_0x2723af8;  1 drivers
v0x2721158_0 .net "_008_", 0 0, L_0x2723bf8;  1 drivers
v0x2721218_0 .net "_009_", 0 0, L_0x2723fb8;  1 drivers
v0x2721290_0 .net "_010_", 0 0, L_0x2721560;  1 drivers
v0x2721308_0 .net "_011_", 0 0, L_0x2725838;  1 drivers
v0x2721398_0 .net "_012_", 0 0, L_0x2723400;  1 drivers
v0x27213f0_0 .net "_013_", 0 0, L_0x2723560;  1 drivers
v0x27214b0_0 .net "_014_", 0 0, L_0x2724a30;  1 drivers
v0x2721508_0 .net "_015_", 0 0, L_0x2723600;  1 drivers
v0x27215c8_0 .net "_016_", 0 0, L_0x2724b38;  1 drivers
v0x27216a8_0 .net "_017_", 0 0, L_0x27236d8;  1 drivers
v0x2721700_0 .net "_018_", 0 0, L_0x2723818;  1 drivers
v0x2721758_0 .net "_019_", 0 0, L_0x2722028;  1 drivers
v0x27217b0_0 .net "_020_", 0 0, L_0x271ed60;  1 drivers
v0x2721840_0 .net "_021_", 0 0, L_0x2725a58;  1 drivers
v0x27218d0_0 .net "_022_", 0 0, L_0x2723b48;  1 drivers
v0x2721990_0 .net "_023_", 0 0, v0x2722998_0;  1 drivers
v0x27219e8_0 .net "_024_", 0 0, L_0x2723d70;  1 drivers
v0x2721a40_0 .net "_025_", 0 0, L_0x2725380;  1 drivers
v0x2721a98_0 .net "_026_", 0 0, L_0x2723e10;  1 drivers
v0x2721b28_0 .net "_027_", 0 0, L_0x2721928;  1 drivers
v0x2721b80_0 .net "_028_", 0 0, L_0x2721448;  1 drivers
v0x2721c10_0 .net "_029_", 0 0, L_0x2725be0;  1 drivers
v0x2721ca0_0 .net "_030_", 0 0, L_0x2724200;  1 drivers
v0x2721d30_0 .net "_031_", 0 0, L_0x2725c38;  1 drivers
v0x2721d88_0 .net "_032_", 0 0, L_0x2724408;  1 drivers
v0x2721620_0 .net "_033_", 0 0, L_0x2725c90;  1 drivers
v0x2721f20_0 .net "_034_", 0 0, L_0x27244c0;  1 drivers
v0x2721f78_0 .net "_035_", 0 0, L_0x2725ce8;  1 drivers
v0x2721fd0_0 .net "_036_", 0 0, L_0x27245d8;  1 drivers
v0x2722090_0 .net "_037_", 0 0, L_0x2725d78;  1 drivers
v0x27220e8_0 .net "_038_", 0 0, L_0x2724678;  1 drivers
v0x2722140_0 .net "_039_", 0 0, L_0x27247b8;  1 drivers
v0x27221d0_0 .net "_040_", 0 0, L_0x27248c0;  1 drivers
v0x2722260_0 .net "_041_", 0 0, L_0x2724c10;  1 drivers
v0x27222f0_0 .net "_042_", 0 0, L_0x2724d50;  1 drivers
v0x2722380_0 .net "_043_", 0 0, L_0x2725000;  1 drivers
v0x2722410_0 .net "_044_", 0 0, L_0x2725108;  1 drivers
v0x27224a0_0 .net "_045_", 0 0, L_0x2725210;  1 drivers
v0x2722530_0 .net "_046_", 0 0, L_0x2725558;  1 drivers
v0x27225c0_0 .net *"_s13", 0 0, L_0x27256f0;  1 drivers
v0x2722618_0 .net *"_s18", 0 0, L_0x27257c0;  1 drivers
v0x2722670_0 .net *"_s26", 0 0, L_0x27258e0;  1 drivers
v0x27226c8_0 .net *"_s31", 0 0, L_0x27259b0;  1 drivers
v0x2722720_0 .net *"_s9", 0 0, L_0x27256b0;  1 drivers
v0x2722778_0 .var "clk_1", 0 0;
v0x27227d0_0 .net "clk_16", 0 0, v0x2722bf0_0;  alias, 1 drivers
v0x2722828_0 .var "clk_2", 0 0;
v0x2722880_0 .var "clk_4", 0 0;
v0x27228d8_0 .var "contador_1", 2 0;
v0x2722930_0 .var "contador_2", 1 0;
v0x2722998_0 .var "contador_4", 0 0;
v0x2722a00_0 .net "reset_L", 0 0, v0x2722ec8_0;  alias, 1 drivers
L_0x2725730 .concat8 [ 1 1 1 0], L_0x27256b0, L_0x27256f0, L_0x27257c0;
L_0x2725920 .concat8 [ 1 1 0 0], L_0x27258e0, L_0x27259b0;
L_0x2725be0 .part v0x27228d8_0, 1, 1;
L_0x2725c38 .part v0x27228d8_0, 2, 1;
L_0x2725c90 .part v0x2722930_0, 0, 1;
L_0x2725ce8 .part v0x2722930_0, 1, 1;
L_0x2725d78 .part v0x27228d8_0, 0, 1;
S_0x271b058 .scope module, "_062_" "NOT" 5 77, 2 7 0, S_0x271af18;
 .timescale 0 0;
    .port_info 0 /INPUT 1 "A"
    .port_info 1 /OUTPUT 1 "Y"
L_0x2723400 .functor NOT 1, L_0x2725c38, C4<0>, C4<0>, C4<0>;
v0x271b178_0 .net "A", 0 0, L_0x2725c38;  alias, 1 drivers
v0x271b1f0_0 .net "Y", 0 0, L_0x2723400;  alias, 1 drivers
S_0x271b288 .scope module, "_063_" "NAND" 5 81, 2 13 0, S_0x271af18;
 .timescale 0 0;
    .port_info 0 /INPUT 1 "A"
    .port_info 1 /INPUT 1 "B"
    .port_info 2 /OUTPUT 1 "Y"
L_0x27234a8 .functor AND 1, L_0x2725d78, L_0x2725be0, C4<1>, C4<1>;
L_0x2723560 .functor NOT 1, L_0x27234a8, C4<0>, C4<0>, C4<0>;
v0x271b3a0_0 .net "A", 0 0, L_0x2725d78;  alias, 1 drivers
v0x271b418_0 .net "B", 0 0, L_0x2725be0;  alias, 1 drivers
v0x271b480_0 .net "Y", 0 0, L_0x2723560;  alias, 1 drivers
v0x271b4f0_0 .net *"_s0", 0 0, L_0x27234a8;  1 drivers
S_0x271b5a8 .scope module, "_064_" "NOR" 5 86, 2 19 0, S_0x271af18;
 .timescale 0 0;
    .port_info 0 /INPUT 1 "A"
    .port_info 1 /INPUT 1 "B"
    .port_info 2 /OUTPUT 1 "Y"
L_0x27235b0 .functor OR 1, L_0x2723560, L_0x2723400, C4<0>, C4<0>;
L_0x2723600 .functor NOT 1, L_0x27235b0, C4<0>, C4<0>, C4<0>;
v0x271b6d8_0 .net "A", 0 0, L_0x2723560;  alias, 1 drivers
v0x271b750_0 .net "B", 0 0, L_0x2723400;  alias, 1 drivers
v0x271b7c8_0 .net "Y", 0 0, L_0x2723600;  alias, 1 drivers
v0x271b838_0 .net *"_s0", 0 0, L_0x27235b0;  1 drivers
S_0x271b8d0 .scope module, "_065_" "NOR" 5 91, 2 19 0, S_0x271af18;
 .timescale 0 0;
    .port_info 0 /INPUT 1 "A"
    .port_info 1 /INPUT 1 "B"
    .port_info 2 /OUTPUT 1 "Y"
L_0x2723688 .functor OR 1, L_0x2723600, L_0x2725558, C4<0>, C4<0>;
L_0x27236d8 .functor NOT 1, L_0x2723688, C4<0>, C4<0>, C4<0>;
v0x271b9e8_0 .net "A", 0 0, L_0x2723600;  alias, 1 drivers
v0x271ba70_0 .net "B", 0 0, L_0x2725558;  alias, 1 drivers
v0x271bac8_0 .net "Y", 0 0, L_0x27236d8;  alias, 1 drivers
v0x271bb38_0 .net *"_s0", 0 0, L_0x2723688;  1 drivers
S_0x271bbf0 .scope module, "_066_" "NAND" 5 96, 2 13 0, S_0x271af18;
 .timescale 0 0;
    .port_info 0 /INPUT 1 "A"
    .port_info 1 /INPUT 1 "B"
    .port_info 2 /OUTPUT 1 "Y"
L_0x2723760 .functor AND 1, L_0x2723600, L_0x2725558, C4<1>, C4<1>;
L_0x2723818 .functor NOT 1, L_0x2723760, C4<0>, C4<0>, C4<0>;
v0x271bd30_0 .net "A", 0 0, L_0x2723600;  alias, 1 drivers
v0x271bdd0_0 .net "B", 0 0, L_0x2725558;  alias, 1 drivers
v0x271be38_0 .net "Y", 0 0, L_0x2723818;  alias, 1 drivers
v0x271be90_0 .net *"_s0", 0 0, L_0x2723760;  1 drivers
S_0x271bf28 .scope module, "_067_" "NAND" 5 101, 2 13 0, S_0x271af18;
 .timescale 0 0;
    .port_info 0 /INPUT 1 "A"
    .port_info 1 /INPUT 1 "B"
    .port_info 2 /OUTPUT 1 "Y"
L_0x2723868 .functor AND 1, L_0x2723818, L_0x27255a8, C4<1>, C4<1>;
L_0x271ed60 .functor NOT 1, L_0x2723868, C4<0>, C4<0>, C4<0>;
v0x271c040_0 .net "A", 0 0, L_0x2723818;  alias, 1 drivers
v0x271c0c8_0 .net "B", 0 0, L_0x27255a8;  alias, 1 drivers
v0x271c120_0 .net "Y", 0 0, L_0x271ed60;  alias, 1 drivers
v0x271c190_0 .net *"_s0", 0 0, L_0x2723868;  1 drivers
S_0x271c248 .scope module, "_068_" "NOR" 5 106, 2 19 0, S_0x271af18;
 .timescale 0 0;
    .port_info 0 /INPUT 1 "A"
    .port_info 1 /INPUT 1 "B"
    .port_info 2 /OUTPUT 1 "Y"
L_0x27239e8 .functor OR 1, L_0x271ed60, L_0x27236d8, C4<0>, C4<0>;
L_0x2723af8 .functor NOT 1, L_0x27239e8, C4<0>, C4<0>, C4<0>;
v0x271c360_0 .net "A", 0 0, L_0x271ed60;  alias, 1 drivers
v0x271c3e8_0 .net "B", 0 0, L_0x27236d8;  alias, 1 drivers
v0x271c460_0 .net "Y", 0 0, L_0x2723af8;  alias, 1 drivers
v0x271c4d0_0 .net *"_s0", 0 0, L_0x27239e8;  1 drivers
S_0x271c568 .scope module, "_069_" "NOT" 5 111, 2 7 0, S_0x271af18;
 .timescale 0 0;
    .port_info 0 /INPUT 1 "A"
    .port_info 1 /OUTPUT 1 "Y"
L_0x2723b48 .functor NOT 1, L_0x27255a8, C4<0>, C4<0>, C4<0>;
v0x271c678_0 .net "A", 0 0, L_0x27255a8;  alias, 1 drivers
v0x271c700_0 .net "Y", 0 0, L_0x2723b48;  alias, 1 drivers
S_0x271c788 .scope module, "_070_" "NOR" 5 115, 2 19 0, S_0x271af18;
 .timescale 0 0;
    .port_info 0 /INPUT 1 "A"
    .port_info 1 /INPUT 1 "B"
    .port_info 2 /OUTPUT 1 "Y"
L_0x2723ba8 .functor OR 1, L_0x2725d78, L_0x2723b48, C4<0>, C4<0>;
L_0x2723bf8 .functor NOT 1, L_0x2723ba8, C4<0>, C4<0>, C4<0>;
v0x271c8c0_0 .net "A", 0 0, L_0x2725d78;  alias, 1 drivers
v0x271c948_0 .net "B", 0 0, L_0x2723b48;  alias, 1 drivers
v0x271c9c0_0 .net "Y", 0 0, L_0x2723bf8;  alias, 1 drivers
v0x271ca30_0 .net *"_s0", 0 0, L_0x2723ba8;  1 drivers
S_0x271cac8 .scope module, "_071_" "NOR" 5 120, 2 19 0, S_0x271af18;
 .timescale 0 0;
    .port_info 0 /INPUT 1 "A"
    .port_info 1 /INPUT 1 "B"
    .port_info 2 /OUTPUT 1 "Y"
L_0x2723cb8 .functor OR 1, L_0x2725d78, L_0x2725be0, C4<0>, C4<0>;
L_0x2723d70 .functor NOT 1, L_0x2723cb8, C4<0>, C4<0>, C4<0>;
v0x271cbe0_0 .net "A", 0 0, L_0x2725d78;  alias, 1 drivers
v0x271cc80_0 .net "B", 0 0, L_0x2725be0;  alias, 1 drivers
v0x271cce8_0 .net "Y", 0 0, L_0x2723d70;  alias, 1 drivers
v0x271cd58_0 .net *"_s0", 0 0, L_0x2723cb8;  1 drivers
S_0x271cdf0 .scope module, "_072_" "NAND" 5 125, 2 13 0, S_0x271af18;
 .timescale 0 0;
    .port_info 0 /INPUT 1 "A"
    .port_info 1 /INPUT 1 "B"
    .port_info 2 /OUTPUT 1 "Y"
L_0x2723dc0 .functor AND 1, L_0x2723560, L_0x27255a8, C4<1>, C4<1>;
L_0x2723e10 .functor NOT 1, L_0x2723dc0, C4<0>, C4<0>, C4<0>;
v0x271cf08_0 .net "A", 0 0, L_0x2723560;  alias, 1 drivers
v0x271cfa8_0 .net "B", 0 0, L_0x27255a8;  alias, 1 drivers
v0x271d048_0 .net "Y", 0 0, L_0x2723e10;  alias, 1 drivers
v0x271d0b8_0 .net *"_s0", 0 0, L_0x2723dc0;  1 drivers
S_0x271d160 .scope module, "_073_" "NOR" 5 130, 2 19 0, S_0x271af18;
 .timescale 0 0;
    .port_info 0 /INPUT 1 "A"
    .port_info 1 /INPUT 1 "B"
    .port_info 2 /OUTPUT 1 "Y"
L_0x2723e98 .functor OR 1, L_0x2723e10, L_0x2723d70, C4<0>, C4<0>;
L_0x2723fb8 .functor NOT 1, L_0x2723e98, C4<0>, C4<0>, C4<0>;
v0x271d278_0 .net "A", 0 0, L_0x2723e10;  alias, 1 drivers
v0x271d2e0_0 .net "B", 0 0, L_0x2723d70;  alias, 1 drivers
v0x271d338_0 .net "Y", 0 0, L_0x2723fb8;  alias, 1 drivers
v0x271d3a8_0 .net *"_s0", 0 0, L_0x2723e98;  1 drivers
S_0x271d440 .scope module, "_074_" "NAND" 5 135, 2 13 0, S_0x271af18;
 .timescale 0 0;
    .port_info 0 /INPUT 1 "A"
    .port_info 1 /INPUT 1 "B"
    .port_info 2 /OUTPUT 1 "Y"
L_0x2724008 .functor AND 1, L_0x2723560, L_0x2723400, C4<1>, C4<1>;
L_0x2721448 .functor NOT 1, L_0x2724008, C4<0>, C4<0>, C4<0>;
v0x271d558_0 .net "A", 0 0, L_0x2723560;  alias, 1 drivers
v0x271d5c0_0 .net "B", 0 0, L_0x2723400;  alias, 1 drivers
v0x271d660_0 .net "Y", 0 0, L_0x2721448;  alias, 1 drivers
v0x271d6d0_0 .net *"_s0", 0 0, L_0x2724008;  1 drivers
S_0x271d778 .scope module, "_075_" "NAND" 5 140, 2 13 0, S_0x271af18;
 .timescale 0 0;
    .port_info 0 /INPUT 1 "A"
    .port_info 1 /INPUT 1 "B"
    .port_info 2 /OUTPUT 1 "Y"
L_0x2724158 .functor AND 1, L_0x2721448, L_0x27255a8, C4<1>, C4<1>;
L_0x2724200 .functor NOT 1, L_0x2724158, C4<0>, C4<0>, C4<0>;
v0x271d890_0 .net "A", 0 0, L_0x2721448;  alias, 1 drivers
v0x271d8f8_0 .net "B", 0 0, L_0x27255a8;  alias, 1 drivers
v0x271d950_0 .net "Y", 0 0, L_0x2724200;  alias, 1 drivers
v0x271d9c0_0 .net *"_s0", 0 0, L_0x2724158;  1 drivers
S_0x271da68 .scope module, "_076_" "NOR" 5 145, 2 19 0, S_0x271af18;
 .timescale 0 0;
    .port_info 0 /INPUT 1 "A"
    .port_info 1 /INPUT 1 "B"
    .port_info 2 /OUTPUT 1 "Y"
L_0x2724250 .functor OR 1, L_0x2724200, L_0x2723600, C4<0>, C4<0>;
L_0x2721560 .functor NOT 1, L_0x2724250, C4<0>, C4<0>, C4<0>;
v0x271db80_0 .net "A", 0 0, L_0x2724200;  alias, 1 drivers
v0x271dc08_0 .net "B", 0 0, L_0x2723600;  alias, 1 drivers
v0x271dc60_0 .net "Y", 0 0, L_0x2721560;  alias, 1 drivers
v0x271dcd0_0 .net *"_s0", 0 0, L_0x2724250;  1 drivers
S_0x271dd78 .scope module, "_077_" "NOT" 5 150, 2 7 0, S_0x271af18;
 .timescale 0 0;
    .port_info 0 /INPUT 1 "A"
    .port_info 1 /OUTPUT 1 "Y"
L_0x2724408 .functor NOT 1, L_0x2725c90, C4<0>, C4<0>, C4<0>;
v0x271de88_0 .net "A", 0 0, L_0x2725c90;  alias, 1 drivers
v0x271df00_0 .net "Y", 0 0, L_0x2724408;  alias, 1 drivers
S_0x271df98 .scope module, "_078_" "NOT" 5 154, 2 7 0, S_0x271af18;
 .timescale 0 0;
    .port_info 0 /INPUT 1 "A"
    .port_info 1 /OUTPUT 1 "Y"
L_0x27244c0 .functor NOT 1, L_0x2725ce8, C4<0>, C4<0>, C4<0>;
v0x271e110_0 .net "A", 0 0, L_0x2725ce8;  alias, 1 drivers
v0x271e168_0 .net "Y", 0 0, L_0x27244c0;  alias, 1 drivers
S_0x271e200 .scope module, "_079_" "NOR" 5 158, 2 19 0, S_0x271af18;
 .timescale 0 0;
    .port_info 0 /INPUT 1 "A"
    .port_info 1 /INPUT 1 "B"
    .port_info 2 /OUTPUT 1 "Y"
L_0x2724588 .functor OR 1, L_0x27244c0, L_0x2724408, C4<0>, C4<0>;
L_0x27245d8 .functor NOT 1, L_0x2724588, C4<0>, C4<0>, C4<0>;
v0x271e318_0 .net "A", 0 0, L_0x27244c0;  alias, 1 drivers
v0x271e3a0_0 .net "B", 0 0, L_0x2724408;  alias, 1 drivers
v0x271e418_0 .net "Y", 0 0, L_0x27245d8;  alias, 1 drivers
v0x271e488_0 .net *"_s0", 0 0, L_0x2724588;  1 drivers
S_0x271e520 .scope module, "_080_" "NOR" 5 163, 2 19 0, S_0x271af18;
 .timescale 0 0;
    .port_info 0 /INPUT 1 "A"
    .port_info 1 /INPUT 1 "B"
    .port_info 2 /OUTPUT 1 "Y"
L_0x2724628 .functor OR 1, L_0x27245d8, L_0x2725838, C4<0>, C4<0>;
L_0x2724678 .functor NOT 1, L_0x2724628, C4<0>, C4<0>, C4<0>;
v0x271e638_0 .net "A", 0 0, L_0x27245d8;  alias, 1 drivers
v0x271e6c0_0 .net "B", 0 0, L_0x2725838;  alias, 1 drivers
v0x271e718_0 .net "Y", 0 0, L_0x2724678;  alias, 1 drivers
v0x271e788_0 .net *"_s0", 0 0, L_0x2724628;  1 drivers
S_0x271e840 .scope module, "_081_" "NAND" 5 168, 2 13 0, S_0x271af18;
 .timescale 0 0;
    .port_info 0 /INPUT 1 "A"
    .port_info 1 /INPUT 1 "B"
    .port_info 2 /OUTPUT 1 "Y"
L_0x2724700 .functor AND 1, L_0x27245d8, L_0x2725838, C4<1>, C4<1>;
L_0x27247b8 .functor NOT 1, L_0x2724700, C4<0>, C4<0>, C4<0>;
v0x271e958_0 .net "A", 0 0, L_0x27245d8;  alias, 1 drivers
v0x271e9f8_0 .net "B", 0 0, L_0x2725838;  alias, 1 drivers
v0x271ea60_0 .net "Y", 0 0, L_0x27247b8;  alias, 1 drivers
v0x271ead0_0 .net *"_s0", 0 0, L_0x2724700;  1 drivers
S_0x271eb68 .scope module, "_082_" "NAND" 5 173, 2 13 0, S_0x271af18;
 .timescale 0 0;
    .port_info 0 /INPUT 1 "A"
    .port_info 1 /INPUT 1 "B"
    .port_info 2 /OUTPUT 1 "Y"
L_0x2724808 .functor AND 1, L_0x27247b8, L_0x27255a8, C4<1>, C4<1>;
L_0x27248c0 .functor NOT 1, L_0x2724808, C4<0>, C4<0>, C4<0>;
v0x271ec80_0 .net "A", 0 0, L_0x27247b8;  alias, 1 drivers
v0x271ed08_0 .net "B", 0 0, L_0x27255a8;  alias, 1 drivers
v0x271edc8_0 .net "Y", 0 0, L_0x27248c0;  alias, 1 drivers
v0x271ee38_0 .net *"_s0", 0 0, L_0x2724808;  1 drivers
S_0x271eee0 .scope module, "_083_" "NOR" 5 178, 2 19 0, S_0x271af18;
 .timescale 0 0;
    .port_info 0 /INPUT 1 "A"
    .port_info 1 /INPUT 1 "B"
    .port_info 2 /OUTPUT 1 "Y"
L_0x2724910 .functor OR 1, L_0x27248c0, L_0x2724678, C4<0>, C4<0>;
L_0x2724a30 .functor NOT 1, L_0x2724910, C4<0>, C4<0>, C4<0>;
v0x271eff8_0 .net "A", 0 0, L_0x27248c0;  alias, 1 drivers
v0x271f080_0 .net "B", 0 0, L_0x2724678;  alias, 1 drivers
v0x271f0f8_0 .net "Y", 0 0, L_0x2724a30;  alias, 1 drivers
v0x271f168_0 .net *"_s0", 0 0, L_0x2724910;  1 drivers
S_0x271f200 .scope module, "_084_" "NOR" 5 183, 2 19 0, S_0x271af18;
 .timescale 0 0;
    .port_info 0 /INPUT 1 "A"
    .port_info 1 /INPUT 1 "B"
    .port_info 2 /OUTPUT 1 "Y"
L_0x2724a80 .functor OR 1, L_0x2725c90, L_0x2723b48, C4<0>, C4<0>;
L_0x2724b38 .functor NOT 1, L_0x2724a80, C4<0>, C4<0>, C4<0>;
v0x271f318_0 .net "A", 0 0, L_0x2725c90;  alias, 1 drivers
v0x271f3a0_0 .net "B", 0 0, L_0x2723b48;  alias, 1 drivers
v0x271f3f8_0 .net "Y", 0 0, L_0x2724b38;  alias, 1 drivers
v0x271f468_0 .net *"_s0", 0 0, L_0x2724a80;  1 drivers
S_0x271f510 .scope module, "_085_" "NAND" 5 188, 2 13 0, S_0x271af18;
 .timescale 0 0;
    .port_info 0 /INPUT 1 "A"
    .port_info 1 /INPUT 1 "B"
    .port_info 2 /OUTPUT 1 "Y"
L_0x2724bc0 .functor AND 1, L_0x27244c0, L_0x2724408, C4<1>, C4<1>;
L_0x2724c10 .functor NOT 1, L_0x2724bc0, C4<0>, C4<0>, C4<0>;
v0x271f628_0 .net "A", 0 0, L_0x27244c0;  alias, 1 drivers
v0x271f6c8_0 .net "B", 0 0, L_0x2724408;  alias, 1 drivers
v0x271f768_0 .net "Y", 0 0, L_0x2724c10;  alias, 1 drivers
v0x271f7d8_0 .net *"_s0", 0 0, L_0x2724bc0;  1 drivers
S_0x271f880 .scope module, "_086_" "NAND" 5 193, 2 13 0, S_0x271af18;
 .timescale 0 0;
    .port_info 0 /INPUT 1 "A"
    .port_info 1 /INPUT 1 "B"
    .port_info 2 /OUTPUT 1 "Y"
L_0x2724c98 .functor AND 1, L_0x2724c10, L_0x27255a8, C4<1>, C4<1>;
L_0x2724d50 .functor NOT 1, L_0x2724c98, C4<0>, C4<0>, C4<0>;
v0x271f998_0 .net "A", 0 0, L_0x2724c10;  alias, 1 drivers
v0x271fa00_0 .net "B", 0 0, L_0x27255a8;  alias, 1 drivers
v0x271fa58_0 .net "Y", 0 0, L_0x2724d50;  alias, 1 drivers
v0x271fac8_0 .net *"_s0", 0 0, L_0x2724c98;  1 drivers
S_0x271fb70 .scope module, "_087_" "NOR" 5 198, 2 19 0, S_0x271af18;
 .timescale 0 0;
    .port_info 0 /INPUT 1 "A"
    .port_info 1 /INPUT 1 "B"
    .port_info 2 /OUTPUT 1 "Y"
L_0x2724da0 .functor OR 1, L_0x2724d50, L_0x27245d8, C4<0>, C4<0>;
L_0x2722028 .functor NOT 1, L_0x2724da0, C4<0>, C4<0>, C4<0>;
v0x271fc88_0 .net "A", 0 0, L_0x2724d50;  alias, 1 drivers
v0x271fcf0_0 .net "B", 0 0, L_0x27245d8;  alias, 1 drivers
v0x271fd48_0 .net "Y", 0 0, L_0x2722028;  alias, 1 drivers
v0x271fdb8_0 .net *"_s0", 0 0, L_0x2724da0;  1 drivers
S_0x271fe60 .scope module, "_088_" "NOR" 5 203, 2 19 0, S_0x271af18;
 .timescale 0 0;
    .port_info 0 /INPUT 1 "A"
    .port_info 1 /INPUT 1 "B"
    .port_info 2 /OUTPUT 1 "Y"
L_0x2724f58 .functor OR 1, v0x2722998_0, L_0x2725a58, C4<0>, C4<0>;
L_0x2725000 .functor NOT 1, L_0x2724f58, C4<0>, C4<0>, C4<0>;
v0x271ff78_0 .net "A", 0 0, v0x2722998_0;  alias, 1 drivers
v0x271fff0_0 .net "B", 0 0, L_0x2725a58;  alias, 1 drivers
v0x2720058_0 .net "Y", 0 0, L_0x2725000;  alias, 1 drivers
v0x27200c8_0 .net *"_s0", 0 0, L_0x2724f58;  1 drivers
S_0x2720180 .scope module, "_089_" "NAND" 5 208, 2 13 0, S_0x271af18;
 .timescale 0 0;
    .port_info 0 /INPUT 1 "A"
    .port_info 1 /INPUT 1 "B"
    .port_info 2 /OUTPUT 1 "Y"
L_0x2725050 .functor AND 1, v0x2722998_0, L_0x2725a58, C4<1>, C4<1>;
L_0x2725108 .functor NOT 1, L_0x2725050, C4<0>, C4<0>, C4<0>;
v0x2720298_0 .net "A", 0 0, v0x2722998_0;  alias, 1 drivers
v0x2720300_0 .net "B", 0 0, L_0x2725a58;  alias, 1 drivers
v0x2720378_0 .net "Y", 0 0, L_0x2725108;  alias, 1 drivers
v0x27203e8_0 .net *"_s0", 0 0, L_0x2725050;  1 drivers
S_0x2720480 .scope module, "_090_" "NAND" 5 213, 2 13 0, S_0x271af18;
 .timescale 0 0;
    .port_info 0 /INPUT 1 "A"
    .port_info 1 /INPUT 1 "B"
    .port_info 2 /OUTPUT 1 "Y"
L_0x2725158 .functor AND 1, L_0x2725108, L_0x27255a8, C4<1>, C4<1>;
L_0x2725210 .functor NOT 1, L_0x2725158, C4<0>, C4<0>, C4<0>;
v0x2720598_0 .net "A", 0 0, L_0x2725108;  alias, 1 drivers
v0x2720620_0 .net "B", 0 0, L_0x27255a8;  alias, 1 drivers
v0x2720678_0 .net "Y", 0 0, L_0x2725210;  alias, 1 drivers
v0x27206e8_0 .net *"_s0", 0 0, L_0x2725158;  1 drivers
S_0x2720790 .scope module, "_091_" "NOR" 5 218, 2 19 0, S_0x271af18;
 .timescale 0 0;
    .port_info 0 /INPUT 1 "A"
    .port_info 1 /INPUT 1 "B"
    .port_info 2 /OUTPUT 1 "Y"
L_0x2725260 .functor OR 1, L_0x2725210, L_0x2725000, C4<0>, C4<0>;
L_0x2725380 .functor NOT 1, L_0x2725260, C4<0>, C4<0>, C4<0>;
v0x27208a8_0 .net "A", 0 0, L_0x2725210;  alias, 1 drivers
v0x2720930_0 .net "B", 0 0, L_0x2725000;  alias, 1 drivers
v0x27209a8_0 .net "Y", 0 0, L_0x2725380;  alias, 1 drivers
v0x2720a18_0 .net *"_s0", 0 0, L_0x2725260;  1 drivers
S_0x2720ab0 .scope module, "_092_" "NOR" 5 223, 2 19 0, S_0x271af18;
 .timescale 0 0;
    .port_info 0 /INPUT 1 "A"
    .port_info 1 /INPUT 1 "B"
    .port_info 2 /OUTPUT 1 "Y"
L_0x27253d0 .functor OR 1, v0x2722998_0, L_0x2723b48, C4<0>, C4<0>;
L_0x2721928 .functor NOT 1, L_0x27253d0, C4<0>, C4<0>, C4<0>;
v0x2720bc8_0 .net "A", 0 0, v0x2722998_0;  alias, 1 drivers
v0x2720c68_0 .net "B", 0 0, L_0x2723b48;  alias, 1 drivers
v0x2720cd0_0 .net "Y", 0 0, L_0x2721928;  alias, 1 drivers
v0x2720d40_0 .net *"_s0", 0 0, L_0x27253d0;  1 drivers
S_0x2722a98 .scope module, "gr_p" "greloj_p" 3 20, 6 1 0, S_0x26f4c60;
 .timescale 0 0;
    .port_info 0 /INPUT 1 "clk_4_estr"
    .port_info 1 /INPUT 1 "clk_4_cond"
    .port_info 2 /INPUT 1 "clk_2_estr"
    .port_info 3 /INPUT 1 "clk_2_cond"
    .port_info 4 /INPUT 1 "clk_1_estr"
    .port_info 5 /INPUT 1 "clk_1_cond"
    .port_info 6 /OUTPUT 1 "reset_L"
    .port_info 7 /OUTPUT 1 "clk_16"
v0x2722bf0_0 .var "clk_16", 0 0;
v0x2722c80_0 .net "clk_1_cond", 0 0, v0x271ab28_0;  alias, 1 drivers
v0x2722ce8_0 .net "clk_1_estr", 0 0, v0x2722778_0;  alias, 1 drivers
v0x2722d40_0 .net "clk_2_cond", 0 0, v0x271ac08_0;  alias, 1 drivers
v0x2722d98_0 .net "clk_2_estr", 0 0, v0x2722828_0;  alias, 1 drivers
v0x2722e18_0 .net "clk_4_cond", 0 0, v0x271ac78_0;  alias, 1 drivers
v0x2722e70_0 .net "clk_4_estr", 0 0, v0x2722880_0;  alias, 1 drivers
v0x2722ec8_0 .var "reset_L", 0 0;
    .scope S_0x26f5b20;
T_0 ;
    %wait E_0x271a508;
    %load/vec4 v0x271a5b8_0;
    %assign/vec4 v0x271a620_0, 0;
    %jmp T_0;
    .thread T_0;
    .scope S_0x26f5538;
T_1 ;
    %wait E_0x271a6d0;
    %load/vec4 v0x271a8c0_0;
    %flag_set/vec4 8;
    %jmp/0xz  T_1.0, 8;
    %pushi/vec4 1, 0, 1;
    %assign/vec4 v0x271a7e8_0, 0;
    %jmp T_1.1;
T_1.0 ;
    %load/vec4 v0x271a858_0;
    %flag_set/vec4 8;
    %jmp/0xz  T_1.2, 8;
    %pushi/vec4 0, 0, 1;
    %assign/vec4 v0x271a7e8_0, 0;
    %jmp T_1.3;
T_1.2 ;
    %load/vec4 v0x271a780_0;
    %assign/vec4 v0x271a7e8_0, 0;
T_1.3 ;
T_1.1 ;
    %jmp T_1;
    .thread T_1;
    .scope S_0x271a9a0;
T_2 ;
    %wait E_0x271aae0;
    %pushi/vec4 0, 0, 1;
    %assign/vec4 v0x271adf8_0, 0;
    %pushi/vec4 0, 0, 1;
    %assign/vec4 v0x271ac78_0, 0;
    %load/vec4 v0x271ae60_0;
    %flag_set/vec4 8;
    %jmp/0xz  T_2.0, 8;
    %load/vec4 v0x271adf8_0;
    %inv;
    %assign/vec4 v0x271adf8_0, 0;
    %load/vec4 v0x271adf8_0;
    %pad/u 32;
    %cmpi/e 1, 0, 32;
    %jmp/0xz  T_2.2, 4;
    %load/vec4 v0x271ac78_0;
    %inv;
    %assign/vec4 v0x271ac78_0, 0;
    %jmp T_2.3;
T_2.2 ;
    %load/vec4 v0x271ac78_0;
    %assign/vec4 v0x271ac78_0, 0;
T_2.3 ;
T_2.0 ;
    %jmp T_2;
    .thread T_2;
    .scope S_0x271a9a0;
T_3 ;
    %wait E_0x271aae0;
    %pushi/vec4 0, 0, 2;
    %assign/vec4 v0x271ad80_0, 0;
    %pushi/vec4 0, 0, 1;
    %assign/vec4 v0x271ac08_0, 0;
    %load/vec4 v0x271ae60_0;
    %flag_set/vec4 8;
    %jmp/0xz  T_3.0, 8;
    %load/vec4 v0x271ad80_0;
    %addi 1, 0, 2;
    %assign/vec4 v0x271ad80_0, 0;
    %load/vec4 v0x271ad80_0;
    %pad/u 32;
    %cmpi/e 3, 0, 32;
    %jmp/0xz  T_3.2, 4;
    %load/vec4 v0x271ac08_0;
    %inv;
    %assign/vec4 v0x271ac08_0, 0;
    %jmp T_3.3;
T_3.2 ;
    %load/vec4 v0x271ac08_0;
    %assign/vec4 v0x271ac08_0, 0;
T_3.3 ;
T_3.0 ;
    %jmp T_3;
    .thread T_3;
    .scope S_0x271a9a0;
T_4 ;
    %wait E_0x271aae0;
    %pushi/vec4 0, 0, 3;
    %assign/vec4 v0x271ace0_0, 0;
    %pushi/vec4 0, 0, 1;
    %assign/vec4 v0x271ab28_0, 0;
    %load/vec4 v0x271ae60_0;
    %flag_set/vec4 8;
    %jmp/0xz  T_4.0, 8;
    %load/vec4 v0x271ace0_0;
    %addi 1, 0, 3;
    %assign/vec4 v0x271ace0_0, 0;
    %load/vec4 v0x271ace0_0;
    %pad/u 32;
    %cmpi/e 7, 0, 32;
    %jmp/0xz  T_4.2, 4;
    %load/vec4 v0x271ab28_0;
    %inv;
    %assign/vec4 v0x271ab28_0, 0;
    %jmp T_4.3;
T_4.2 ;
    %load/vec4 v0x271ab28_0;
    %assign/vec4 v0x271ab28_0, 0;
T_4.3 ;
T_4.0 ;
    %jmp T_4;
    .thread T_4;
    .scope S_0x271af18;
T_5 ;
    %wait E_0x271aae0;
    %load/vec4 v0x2720de8_0;
    %assign/vec4 v0x2722778_0, 0;
    %jmp T_5;
    .thread T_5;
    .scope S_0x271af18;
T_6 ;
    %wait E_0x271aae0;
    %load/vec4 v0x2720f28_0;
    %parti/s 1, 0, 2;
    %ix/load 4, 0, 0;
    %ix/load 5, 0, 0;
    %flag_set/imm 4, 0;
    %assign/vec4/off/d v0x27228d8_0, 4, 5;
    %jmp T_6;
    .thread T_6;
    .scope S_0x271af18;
T_7 ;
    %wait E_0x271aae0;
    %load/vec4 v0x2720f28_0;
    %parti/s 1, 1, 2;
    %ix/load 4, 1, 0;
    %ix/load 5, 0, 0;
    %flag_set/imm 4, 0;
    %assign/vec4/off/d v0x27228d8_0, 4, 5;
    %jmp T_7;
    .thread T_7;
    .scope S_0x271af18;
T_8 ;
    %wait E_0x271aae0;
    %load/vec4 v0x2720f28_0;
    %parti/s 1, 2, 3;
    %ix/load 4, 2, 0;
    %ix/load 5, 0, 0;
    %flag_set/imm 4, 0;
    %assign/vec4/off/d v0x27228d8_0, 4, 5;
    %jmp T_8;
    .thread T_8;
    .scope S_0x271af18;
T_9 ;
    %wait E_0x271aae0;
    %load/vec4 v0x2720e50_0;
    %assign/vec4 v0x2722828_0, 0;
    %jmp T_9;
    .thread T_9;
    .scope S_0x271af18;
T_10 ;
    %wait E_0x271aae0;
    %load/vec4 v0x2720fa0_0;
    %parti/s 1, 0, 2;
    %ix/load 4, 0, 0;
    %ix/load 5, 0, 0;
    %flag_set/imm 4, 0;
    %assign/vec4/off/d v0x2722930_0, 4, 5;
    %jmp T_10;
    .thread T_10;
    .scope S_0x271af18;
T_11 ;
    %wait E_0x271aae0;
    %load/vec4 v0x2720fa0_0;
    %parti/s 1, 1, 2;
    %ix/load 4, 1, 0;
    %ix/load 5, 0, 0;
    %flag_set/imm 4, 0;
    %assign/vec4/off/d v0x2722930_0, 4, 5;
    %jmp T_11;
    .thread T_11;
    .scope S_0x271af18;
T_12 ;
    %wait E_0x271aae0;
    %load/vec4 v0x2720eb8_0;
    %assign/vec4 v0x2722880_0, 0;
    %jmp T_12;
    .thread T_12;
    .scope S_0x271af18;
T_13 ;
    %wait E_0x271aae0;
    %load/vec4 v0x2721040_0;
    %assign/vec4 v0x2722998_0, 0;
    %jmp T_13;
    .thread T_13;
    .scope S_0x2722a98;
T_14 ;
    %pushi/vec4 0, 0, 1;
    %assign/vec4 v0x2722bf0_0, 0;
    %end;
    .thread T_14;
    .scope S_0x2722a98;
T_15 ;
    %delay 2, 0;
    %load/vec4 v0x2722bf0_0;
    %inv;
    %assign/vec4 v0x2722bf0_0, 0;
    %jmp T_15;
    .thread T_15;
    .scope S_0x2722a98;
T_16 ;
    %wait E_0x271aae0;
    %pushi/vec4 0, 0, 1;
    %assign/vec4 v0x2722ec8_0, 0;
    %delay 16, 0;
    %pushi/vec4 1, 0, 1;
    %assign/vec4 v0x2722ec8_0, 0;
    %delay 100, 0;
    %vpi_call 6 17 "$finish" {0 0 0};
    %jmp T_16;
    .thread T_16;
    .scope S_0x26f4c60;
T_17 ;
    %vpi_call 3 23 "$dumpfile", "senalesVCD_mapped_greloj.vcd" {0 0 0};
    %vpi_call 3 24 "$dumpvars" {0 0 0};
    %end;
    .thread T_17;
# The file index is used to find the file name in the following table.
:file_names 7;
    "N/A";
    "<interactive>";
    "./cmos_cells.v";
    "greloj_tb.v";
    "./greloj_cond.v";
    "./greloj_estructural_auto_mapped.v";
    "./greloj_p.v";
