$date
	Sat Nov 10 09:18:29 2018
$end
$version
	Icarus Verilog
$end
$timescale
	100ps
$end
$scope module BancoPruebas_s2p $end
$var wire 1 ! valid_data_out $end
$var wire 1 " reset_L $end
$var wire 8 # data_out [7:0] $end
$var wire 2 $ data_in [1:0] $end
$var wire 1 % clk $end
$scope module p0 $end
$var wire 1 ! valid_data_out $end
$var wire 8 & data_out [7:0] $end
$var reg 1 % clk $end
$var reg 2 ' data_in [1:0] $end
$var reg 1 " reset_L $end
$upscope $end
$scope module s2p_0 $end
$var wire 1 % clk $end
$var wire 2 ( data_in [1:0] $end
$var wire 1 " reset_L $end
$var reg 1 ) active $end
$var reg 3 * contador_com [2:0] $end
$var reg 2 + contador_serial [1:0] $end
$var reg 2 , data_in_save [1:0] $end
$var reg 8 - data_out [7:0] $end
$var reg 2 . temporal_0 [1:0] $end
$var reg 2 / temporal_1 [1:0] $end
$var reg 2 0 temporal_2 [1:0] $end
$var reg 2 1 temporal_3 [1:0] $end
$var reg 1 ! valid_data_out $end
$upscope $end
$upscope $end
$enddefinitions $end
#0
$dumpvars
bx 1
bx 0
bx /
bx .
bx -
bx ,
bx +
bx *
x)
b0 (
b0 '
bx &
0%
b0 $
bx #
0"
x!
$end
#10
0)
b0 *
b0 +
b0 #
b0 &
b0 -
0!
b0 ,
1%
#20
0%
#30
b0 .
1%
#40
0%
#50
b1 +
1%
1"
#60
0%
#70
b0 /
b10 +
1%
#80
0%
#90
b11 +
b0 0
1%
#100
0%
b11 $
b11 '
b11 (
#110
b0 1
bx000000 #
bx000000 &
bx000000 -
b0 +
b11 ,
1%
#120
0%
#130
b1 +
b11 .
1%
#140
0%
#150
b11 /
b10 +
b0 ,
1%
b0 $
b0 '
b0 (
#160
0%
#170
b11 +
1%
#180
0%
#190
b1111 #
b1111 &
b1111 -
b0 +
1%
#200
0%
b10 $
b10 '
b10 (
#210
b1 +
b10 ,
b0 .
1%
#220
0%
#230
b10 /
b10 +
1%
#240
0%
#250
b11 +
b1 ,
b10 0
1%
b1 $
b1 '
b1 (
#260
0%
#270
b1 1
b101000 #
b101000 &
b101000 -
b0 +
1%
#280
0%
#290
b1 +
b1 .
1%
#300
0%
#310
b1 /
b10 +
1%
#320
0%
#330
b11 +
b1 0
1%
#340
0%
#350
b1010101 #
b1010101 &
b1010101 -
b0 +
b10 ,
1%
b10 $
b10 '
b10 (
#360
0%
#370
b1 +
b10 .
1%
#380
0%
#390
b10 /
b10 +
1%
#400
0%
b11 $
b11 '
b11 (
#410
b11 +
b11 ,
b10 0
1%
#420
0%
#430
b11 1
b1101010 #
b1101010 &
b1101010 -
b0 +
1%
#440
0%
#450
b1 +
b1 ,
b11 .
1%
b1 $
b1 '
b1 (
#460
0%
#470
b1 /
b10 +
1%
#480
0%
#490
b11 +
b1 0
1%
#500
0%
b0 $
b0 '
b0 (
#510
b1 1
b11010111 #
b11010111 &
b11010111 -
b0 +
b0 ,
1%
#520
0%
#530
b1 +
b0 .
1%
#540
0%
#550
b0 /
b10 +
1%
#560
0%
#570
b11 +
b0 0
1%
#580
0%
#590
b0 1
b1000000 #
b1000000 &
b1000000 -
b0 +
1%
#600
0%
#610
b1 +
1%
#620
0%
#630
b10 +
1%
#640
0%
#650
b11 +
1%
#660
0%
#670
b0 #
b0 &
b0 -
b0 +
1%
#680
0%
#690
b1 +
1%
#700
0%
#710
b10 +
1%
#720
0%
#730
b11 +
1%
#740
0%
#750
b0 +
1%
#760
0%
#770
b1 +
b11 ,
1%
b11 $
b11 '
b11 (
#780
0%
#790
b11 /
b10 +
1%
#800
0%
#810
b11 +
b10 ,
b11 0
1%
b10 $
b10 '
b10 (
#820
0%
#830
b10 1
b111100 #
b111100 &
b111100 -
b0 +
b0 ,
1%
b0 $
b0 '
b0 (
#840
0%
#850
b1 +
b11 ,
1%
b11 $
b11 '
b11 (
#860
0%
#870
b10 +
1%
#880
0%
#890
b11 +
b10 ,
1%
b10 $
b10 '
b10 (
#900
0%
#910
b1 *
b10111100 #
b10111100 &
b10111100 -
b0 +
b0 ,
1%
b0 $
b0 '
b0 (
#920
0%
#930
b1 +
b11 ,
1%
b11 $
b11 '
b11 (
#940
0%
#950
b10 +
1%
#960
0%
#970
b11 +
b10 ,
1%
b10 $
b10 '
b10 (
#980
0%
#990
b10 *
b0 +
b0 ,
1%
b0 $
b0 '
b0 (
#1000
0%
#1010
b1 +
b11 ,
1%
b11 $
b11 '
b11 (
#1020
0%
#1030
b10 +
1%
#1040
0%
#1050
b11 +
b10 ,
1%
b10 $
b10 '
b10 (
#1060
0%
#1070
b11 *
b0 +
b0 ,
1%
b0 $
b0 '
b0 (
#1080
0%
#1090
b1 +
b11 ,
1%
b11 $
b11 '
b11 (
#1100
0%
#1110
b10 +
1%
#1120
0%
#1130
b11 +
b10 ,
1%
b10 $
b10 '
b10 (
#1140
0%
#1150
1)
b100 *
b0 +
b0 ,
1%
b0 $
b0 '
b0 (
#1160
0%
#1170
b1 +
b11 ,
1%
b11 $
b11 '
b11 (
#1180
0%
#1190
b10 +
1%
#1200
0%
#1210
b11 +
b10 ,
1%
b10 $
b10 '
b10 (
#1220
0%
#1230
b101 *
b0 +
b0 ,
1%
b0 $
b0 '
b0 (
#1240
0%
#1250
b1 +
b11 ,
1%
b11 $
b11 '
b11 (
#1260
0%
#1270
b10 +
1%
#1280
0%
#1290
b11 +
b10 ,
1%
b10 $
b10 '
b10 (
#1300
0%
#1310
b110 *
b0 +
b0 ,
1%
b0 $
b0 '
b0 (
#1320
0%
#1330
b1 +
b11 ,
1%
b11 $
b11 '
b11 (
#1340
0%
#1350
b10 +
b0 ,
1%
b0 $
b0 '
b0 (
#1360
0%
#1370
b11 +
b10 ,
b0 0
1%
b10 $
b10 '
b10 (
#1380
0%
#1390
1!
b100 *
b10001100 #
b10001100 &
b10001100 -
b0 +
b1 ,
1%
b1 $
b1 '
b1 (
#1400
0%
#1410
b1 +
b1 .
1%
#1420
0%
#1430
b1 /
b10 +
b10 ,
1%
b10 $
b10 '
b10 (
#1440
0%
#1450
b11 +
b11 ,
b10 0
1%
b11 $
b11 '
b11 (
#1460
0%
#1470
b11 1
b10100101 #
b10100101 &
b10100101 -
b0 +
b1 ,
1%
b1 $
b1 '
b1 (
#1480
0%
#1490
b1 +
b0 ,
1%
b0 $
b0 '
b0 (
#1500
0%
#1510
b0 /
b10 +
1%
#1520
0%
#1530
b11 +
b0 0
1%
#1540
0%
#1550
b0 1
b11000001 #
b11000001 &
b11000001 -
b0 +
1%
#1560
0%
#1570
b1 +
b0 .
1%
#1580
0%
#1590
b10 +
1%
#1600
0%
#1610
b11 +
1%
#1620
0%
#1630
b0 #
b0 &
b0 -
b0 +
1%
#1640
0%
#1650
b1 +
1%
#1660
0%
#1670
b10 +
1%
#1680
0%
#1690
b11 +
1%
