$date
	Wed Oct 24 15:42:00 2018
$end
$version
	Icarus Verilog
$end
$timescale
	1s
$end
$scope module BUF $end
$var wire 1 ! A $end
$var wire 1 " Y $end
$upscope $end
$scope module DFF $end
$var wire 1 # C $end
$var wire 1 $ D $end
$var reg 1 % Q $end
$upscope $end
$scope module DFFSR $end
$var wire 1 & C $end
$var wire 1 ' D $end
$var wire 1 ( R $end
$var wire 1 ) S $end
$var reg 1 * Q $end
$upscope $end
$scope module greloj_tb $end
$var wire 1 + wreset_L $end
$var wire 1 , wclk_4_estr $end
$var wire 1 - wclk_4_cond $end
$var wire 1 . wclk_2_estr $end
$var wire 1 / wclk_2_cond $end
$var wire 1 0 wclk_1_estr $end
$var wire 1 1 wclk_1_cond $end
$var wire 1 2 wclk_16 $end
$scope module gr_cond $end
$var wire 1 + reset_L $end
$var wire 1 2 clk_16 $end
$var reg 1 1 clk_1 $end
$var reg 1 / clk_2 $end
$var reg 1 - clk_4 $end
$var reg 3 3 contador_1 [2:0] $end
$var reg 2 4 contador_2 [1:0] $end
$var reg 1 5 contador_4 $end
$upscope $end
$scope module gr_estr $end
$var wire 1 6 _000_ $end
$var wire 1 7 _001_ $end
$var wire 1 8 _002_ $end
$var wire 1 9 _005_ $end
$var wire 1 : _006_ $end
$var wire 1 ; _011_ $end
$var wire 1 < _021_ $end
$var wire 1 = _046_ $end
$var wire 1 + reset_L $end
$var wire 1 2 clk_16 $end
$var wire 1 > _045_ $end
$var wire 1 ? _044_ $end
$var wire 1 @ _043_ $end
$var wire 1 A _042_ $end
$var wire 1 B _041_ $end
$var wire 1 C _040_ $end
$var wire 1 D _039_ $end
$var wire 1 E _038_ $end
$var wire 1 F _037_ $end
$var wire 1 G _036_ $end
$var wire 1 H _035_ $end
$var wire 1 I _034_ $end
$var wire 1 J _033_ $end
$var wire 1 K _032_ $end
$var wire 1 L _031_ $end
$var wire 1 M _030_ $end
$var wire 1 N _029_ $end
$var wire 1 O _028_ $end
$var wire 1 P _027_ $end
$var wire 1 Q _026_ $end
$var wire 1 R _025_ $end
$var wire 1 S _024_ $end
$var wire 1 T _023_ $end
$var wire 1 U _022_ $end
$var wire 1 V _020_ $end
$var wire 1 W _019_ $end
$var wire 1 X _018_ $end
$var wire 1 Y _017_ $end
$var wire 1 Z _016_ $end
$var wire 1 [ _015_ $end
$var wire 1 \ _014_ $end
$var wire 1 ] _013_ $end
$var wire 1 ^ _012_ $end
$var wire 1 _ _010_ $end
$var wire 1 ` _009_ $end
$var wire 1 a _008_ $end
$var wire 1 b _007_ $end
$var wire 2 c _004_ [1:0] $end
$var wire 3 d _003_ [2:0] $end
$var reg 1 0 clk_1 $end
$var reg 1 . clk_2 $end
$var reg 1 , clk_4 $end
$var reg 3 e contador_1 [2:0] $end
$var reg 2 f contador_2 [1:0] $end
$var reg 1 T contador_4 $end
$scope module _062_ $end
$var wire 1 L A $end
$var wire 1 ^ Y $end
$upscope $end
$scope module _063_ $end
$var wire 1 F A $end
$var wire 1 N B $end
$var wire 1 ] Y $end
$upscope $end
$scope module _064_ $end
$var wire 1 ] A $end
$var wire 1 ^ B $end
$var wire 1 [ Y $end
$upscope $end
$scope module _065_ $end
$var wire 1 [ A $end
$var wire 1 = B $end
$var wire 1 Y Y $end
$upscope $end
$scope module _066_ $end
$var wire 1 [ A $end
$var wire 1 = B $end
$var wire 1 X Y $end
$upscope $end
$scope module _067_ $end
$var wire 1 X A $end
$var wire 1 : B $end
$var wire 1 V Y $end
$upscope $end
$scope module _068_ $end
$var wire 1 V A $end
$var wire 1 Y B $end
$var wire 1 b Y $end
$upscope $end
$scope module _069_ $end
$var wire 1 : A $end
$var wire 1 U Y $end
$upscope $end
$scope module _070_ $end
$var wire 1 F A $end
$var wire 1 U B $end
$var wire 1 a Y $end
$upscope $end
$scope module _071_ $end
$var wire 1 F A $end
$var wire 1 N B $end
$var wire 1 S Y $end
$upscope $end
$scope module _072_ $end
$var wire 1 ] A $end
$var wire 1 : B $end
$var wire 1 Q Y $end
$upscope $end
$scope module _073_ $end
$var wire 1 Q A $end
$var wire 1 S B $end
$var wire 1 ` Y $end
$upscope $end
$scope module _074_ $end
$var wire 1 ] A $end
$var wire 1 ^ B $end
$var wire 1 O Y $end
$upscope $end
$scope module _075_ $end
$var wire 1 O A $end
$var wire 1 : B $end
$var wire 1 M Y $end
$upscope $end
$scope module _076_ $end
$var wire 1 M A $end
$var wire 1 [ B $end
$var wire 1 _ Y $end
$upscope $end
$scope module _077_ $end
$var wire 1 J A $end
$var wire 1 K Y $end
$upscope $end
$scope module _078_ $end
$var wire 1 H A $end
$var wire 1 I Y $end
$upscope $end
$scope module _079_ $end
$var wire 1 I A $end
$var wire 1 K B $end
$var wire 1 G Y $end
$upscope $end
$scope module _080_ $end
$var wire 1 G A $end
$var wire 1 ; B $end
$var wire 1 E Y $end
$upscope $end
$scope module _081_ $end
$var wire 1 G A $end
$var wire 1 ; B $end
$var wire 1 D Y $end
$upscope $end
$scope module _082_ $end
$var wire 1 D A $end
$var wire 1 : B $end
$var wire 1 C Y $end
$upscope $end
$scope module _083_ $end
$var wire 1 C A $end
$var wire 1 E B $end
$var wire 1 \ Y $end
$upscope $end
$scope module _084_ $end
$var wire 1 J A $end
$var wire 1 U B $end
$var wire 1 Z Y $end
$upscope $end
$scope module _085_ $end
$var wire 1 I A $end
$var wire 1 K B $end
$var wire 1 B Y $end
$upscope $end
$scope module _086_ $end
$var wire 1 B A $end
$var wire 1 : B $end
$var wire 1 A Y $end
$upscope $end
$scope module _087_ $end
$var wire 1 A A $end
$var wire 1 G B $end
$var wire 1 W Y $end
$upscope $end
$scope module _088_ $end
$var wire 1 T A $end
$var wire 1 < B $end
$var wire 1 @ Y $end
$upscope $end
$scope module _089_ $end
$var wire 1 T A $end
$var wire 1 < B $end
$var wire 1 ? Y $end
$upscope $end
$scope module _090_ $end
$var wire 1 ? A $end
$var wire 1 : B $end
$var wire 1 > Y $end
$upscope $end
$scope module _091_ $end
$var wire 1 > A $end
$var wire 1 @ B $end
$var wire 1 R Y $end
$upscope $end
$scope module _092_ $end
$var wire 1 T A $end
$var wire 1 U B $end
$var wire 1 P Y $end
$upscope $end
$upscope $end
$scope module gr_p $end
$var wire 1 1 clk_1_cond $end
$var wire 1 0 clk_1_estr $end
$var wire 1 / clk_2_cond $end
$var wire 1 . clk_2_estr $end
$var wire 1 - clk_4_cond $end
$var wire 1 , clk_4_estr $end
$var reg 1 2 clk_16 $end
$var reg 1 + reset_L $end
$upscope $end
$upscope $end
$enddefinitions $end
#0
$dumpvars
bx f
bx e
bx d
bx c
xb
xa
x`
x_
x^
x]
x\
x[
xZ
xY
xX
xW
xV
xU
xT
xS
xR
xQ
xP
xO
xN
xM
xL
xK
xJ
xI
xH
xG
xF
xE
xD
xC
xB
xA
x@
x?
x>
x=
x<
x;
x:
x9
x8
x7
x6
x5
bx 4
bx 3
02
x1
x0
x/
x.
x-
x,
x+
x*
z)
z(
z'
z&
x%
z$
z#
z"
z!
$end
#2
06
0b
0`
0_
07
0\
0W
08
0R
b0 d
0a
b0 c
0Z
09
0P
1V
1Q
1M
1C
1A
1>
1U
0-
05
0/
b0 4
01
b0 3
0:
0+
12
#4
02
#6
1E
1Y
0G
0B
0[
0O
1]
1S
1@
1?
1I
1K
1D
1^
1X
0H
0J
0L
0N
0F
0T
0<
0,
b0 f
0;
0.
b0 e
0=
00
12
#8
02
#10
12
#12
02
#14
12
#16
02
#18
15
b1 4
b1 3
b1 d
1a
b1 c
1Z
19
1P
0V
0Q
0C
0>
0U
12
1:
1+
#20
02
#22
1W
0A
1`
18
1R
1B
b10 c
0Z
b10 d
0a
0S
0@
09
0P
0K
1J
1F
1T
b1 f
b1 e
b10 3
b10 4
1-
05
12
#24
02
#26
b11 d
1a
b11 c
1Z
1K
0I
19
1P
0F
1N
0J
1H
15
1-
b11 4
b11 3
b10 e
b10 f
1<
1,
0T
12
#28
02
#30
1_
17
1\
0`
0M
08
0R
0E
0W
1Q
1O
1>
1G
b0 c
0Z
0]
b100 d
0a
0?
09
0P
0K
1J
1F
1T
b11 f
b11 e
b100 3
1/
b0 4
0-
05
12
#32
02
#34
06
0b
1Y
1_
17
1\
0W
1A
0Q
0[
0C
0G
0B
0>
b101 d
1a
1]
1S
b1 c
1Z
0^
1D
1K
1I
1@
1?
19
1P
0F
0N
1L
0J
0H
15
b1 4
1/
b101 3
b100 e
1;
1.
b0 f
0<
0,
0T
12
#36
02
#38
1W
0A
1`
18
1R
1B
b10 c
0Z
b110 d
0a
0S
0@
09
0P
0K
1J
1F
1T
b1 f
b101 e
b110 3
1/
b10 4
1-
05
12
#40
02
#42
b111 d
1a
b11 c
1Z
1K
0I
19
1P
0F
1N
0J
1H
15
1-
1/
b11 4
b111 3
b110 e
b10 f
1<
1,
0T
12
#44
02
#46
07
0\
16
1b
1C
0Y
0_
0`
08
0R
0D
0W
1[
1Q
1>
1G
b0 c
0Z
0]
b0 d
0a
0?
09
0P
0K
1J
1F
1T
b11 f
b111 e
11
b0 3
0/
b0 4
0-
05
12
#48
02
#50
1M
16
1b
0_
07
0\
1E
0W
1A
0Q
0O
0V
0[
0C
0G
0B
0>
b1 d
1a
1]
1S
b1 c
1Z
1X
1^
1D
1K
1I
1@
1?
19
1P
0F
0N
0L
0J
0H
15
b1 4
b1 3
11
1=
10
b0 e
0;
0.
b0 f
0<
0,
0T
12
#52
02
#54
1W
0A
1`
18
1R
1B
b10 c
0Z
b10 d
0a
0S
0@
09
0P
0K
1J
1F
1T
b1 f
b1 e
11
b10 3
b10 4
1-
05
12
#56
02
#58
b11 d
1a
b11 c
1Z
1K
0I
19
1P
0F
1N
0J
1H
15
1-
b11 4
11
b11 3
b10 e
b10 f
1<
1,
0T
12
#60
02
#62
1_
17
1\
0`
0M
08
0R
0E
0W
1Q
1O
1>
1G
b0 c
0Z
0]
b100 d
0a
0?
09
0P
0K
1J
1F
1T
b11 f
b11 e
11
b100 3
1/
b0 4
0-
05
12
#64
02
#66
16
1b
0V
1X
1_
17
1\
0W
1A
0Q
0[
0C
0G
0B
0>
b101 d
1a
1]
1S
b1 c
1Z
0^
1D
1K
1I
1@
1?
19
1P
0F
0N
1L
0J
0H
15
b1 4
1/
11
b101 3
b100 e
1;
1.
b0 f
0<
0,
0T
12
#68
02
#70
1W
0A
1`
18
1R
1B
b10 c
0Z
b110 d
0a
0S
0@
09
0P
0K
1J
1F
1T
b1 f
b101 e
11
b110 3
1/
b10 4
1-
05
12
#72
02
#74
b111 d
1a
b11 c
1Z
1K
0I
19
1P
0F
1N
0J
1H
15
1-
1/
b11 4
11
b111 3
b110 e
b10 f
1<
1,
0T
12
#76
02
#78
06
0b
07
0\
1V
1C
0X
0_
0`
08
0R
0D
0W
1[
1Q
1>
1G
b0 c
0Z
0]
b0 d
0a
0?
09
0P
0K
1J
1F
1T
b11 f
b111 e
01
b0 3
0/
b0 4
0-
05
12
#80
02
#82
1M
06
0b
1Y
0_
07
0\
1E
0W
1A
0Q
0O
0V
0[
0C
0G
0B
0>
b1 d
1a
1]
1S
b1 c
1Z
1X
1^
1D
1K
1I
1@
1?
19
1P
0F
0N
0L
0J
0H
15
b1 4
b1 3
0=
00
b0 e
0;
0.
b0 f
0<
0,
0T
12
#84
02
#86
1W
0A
1`
18
1R
1B
b10 c
0Z
b10 d
0a
0S
0@
09
0P
0K
1J
1F
1T
b1 f
b1 e
b10 3
b10 4
1-
05
12
#88
02
#90
b11 d
1a
b11 c
1Z
1K
0I
19
1P
0F
1N
0J
1H
15
1-
b11 4
b11 3
b10 e
b10 f
1<
1,
0T
12
#92
02
#94
1_
17
1\
0`
0M
08
0R
0E
0W
1Q
1O
1>
1G
b0 c
0Z
0]
b100 d
0a
0?
09
0P
0K
1J
1F
1T
b11 f
b11 e
b100 3
1/
b0 4
0-
05
12
#96
02
#98
06
0b
1Y
1_
17
1\
0W
1A
0Q
0[
0C
0G
0B
0>
b101 d
1a
1]
1S
b1 c
1Z
0^
1D
1K
1I
1@
1?
19
1P
0F
0N
1L
0J
0H
15
b1 4
1/
b101 3
b100 e
1;
1.
b0 f
0<
0,
0T
12
#100
02
#102
1W
0A
1`
18
1R
1B
b10 c
0Z
b110 d
0a
0S
0@
09
0P
0K
1J
1F
1T
b1 f
b101 e
b110 3
1/
b10 4
1-
05
12
#104
02
#106
b111 d
1a
b11 c
1Z
1K
0I
19
1P
0F
1N
0J
1H
15
1-
1/
b11 4
b111 3
b110 e
b10 f
1<
1,
0T
12
#108
02
#110
07
0\
16
1b
1C
0Y
0_
0`
08
0R
0D
0W
1[
1Q
1>
1G
b0 c
0Z
0]
b0 d
0a
0?
09
0P
0K
1J
1F
1T
b11 f
b111 e
11
b0 3
0/
b0 4
0-
05
12
#112
02
#114
1M
16
1b
0_
07
0\
1E
0W
1A
0Q
0O
0V
0[
0C
0G
0B
0>
b1 d
1a
1]
1S
b1 c
1Z
1X
1^
1D
1K
1I
1@
1?
19
1P
0F
0N
0L
0J
0H
15
b1 4
b1 3
11
1=
10
b0 e
0;
0.
b0 f
0<
0,
0T
12
#116
02
#118
1W
0A
1`
18
1R
1B
b10 c
0Z
b10 d
0a
0S
0@
09
0P
0K
1J
1F
1T
b1 f
b1 e
11
b10 3
b10 4
1-
05
12
